\relax 
\select@language{english}
\@writefile{toc}{\select@language{english}}
\@writefile{lof}{\select@language{english}}
\@writefile{lot}{\select@language{english}}
\@writefile{lot}{\contentsline {table}{\numberline {1}{\ignorespaces 2x2D Sideband Method: 13~TeV yields and purities :: 0.0 fb$^{-1}$}}{1}}
